%YAML 1.1
%TAG !u! tag:unity3d.com,2011:
--- !u!114 &11400000
MonoBehaviour:
  m_ObjectHideFlags: 0
  m_CorrespondingSourceObject: {fileID: 0}
  m_PrefabInstance: {fileID: 0}
  m_PrefabAsset: {fileID: 0}
  m_GameObject: {fileID: 0}
  m_Enabled: 1
  m_EditorHideFlags: 0
  m_Script: {fileID: 11500000, guid: 7bb9752572c53b9498fb5a9081cecbb5, type: 3}
  m_Name: BloomBlur
  m_EditorClassIdentifier: 
  verticalBlurShader: {fileID: 4800000, guid: 2c8796e96d8860141b55a0fcfdc1c503, type: 3}
  horizontalBlurShader: {fileID: 4800000, guid: addecf247f085b7479d120f84ede2767,
    type: 3}
  sampleSize: 3
  spread: 0.75
