{
	"data": "eNpjYIADRhSIDiCiTHCIrgpVFlkVPnlkNbjkIWrwmYBwD4LPjEbD1CDrYQFDJpqqwOUOQn4hHB7EhCnheCEmbvGmDwDzCQG5",
	"width": 17,
	"height": 17,
	"dict": [
		{}, { "ground": "Mud", "obj": { "id": "Mud Wall" }, "region": "Door" }, { "ground": "Mud" },
		{ "ground": "Mud", "obj": { "id": "Red Candle" } }, { "ground": "Mud", "region": "Spawn" }
	]
}