{
	"data": "eNpjYAADRihkgtLIosxwWQhkQeNjg0woPFYkNqp9KKIAE5MARg==",
	"width": 14,
	"height": 5,
	"dict": [
		{}, { "ground": "Jungle Grass", "region": "Hallway" },
		{ "ground": "Jungle Grass", "obj": { "id": "Jungle Grass Plant" }, "region": "Hallway" },
		{ "ground": "Jungle Grass", "obj": { "id": "Jungle Foliage" }, "region": "Hallway" },
		{ "ground": "Jungle Grass", "obj": { "id": "Jungle Rock" }, "region": "Hallway" },
		{ "ground": "Jungle Grass", "obj": { "id": "Jungle Flower" }, "region": "Hallway" }
	]
}