%YAML 1.1
%TAG !u! tag:unity3d.com,2011:
--- !u!114 &11400000
MonoBehaviour:
  m_ObjectHideFlags: 0
  m_CorrespondingSourceObject: {fileID: 0}
  m_PrefabInstance: {fileID: 0}
  m_PrefabAsset: {fileID: 0}
  m_GameObject: {fileID: 0}
  m_Enabled: 1
  m_EditorHideFlags: 0
  m_Script: {fileID: 11500000, guid: bd22ed26573627b4aafc37b0849b227c, type: 3}
  m_Name: RareItemNotification
  m_EditorClassIdentifier: 
  icon: {fileID: 21300000, guid: 29b586e8a691870458b0679a737f3349, type: 3}
  material: {fileID: 2100000, guid: 095c783dad5e7644795b7718a9d7d59e, type: 2}
